{
    "KPlugin": {
        "BugReportUrl": "https://bugs.kde.org/enter_bug.cgi?product=systemsettings&component=kcm_kwincompositing",
        "Description": "Compositor Settings for Desktop Effects",
        "Description[ar]": "إعدادات المركب لتأثيرات سطح المكتب",
        "Description[az]": "İş masası effektləri üçün düzücü ayarları",
        "Description[be]": "Налады сродку кампазітынгу для эфектаў працоўнага стала",
        "Description[bg]": "Настройки на композитора за ефекти на работния плот",
        "Description[ca@valencia]": "Configureu el compositor per als efectes de l'escriptori",
        "Description[ca]": "Arranjament del compositor per als efectes d'escriptori",
        "Description[cs]": "Nastavení kompozitoru pro efekty pracovní plochy",
        "Description[de]": "Compositor-Einstellungen für Arbeitsflächen-Effekte",
        "Description[en_GB]": "Compositor Settings for Desktop Effects",
        "Description[eo]": "Komponisto-Agordoj por Labortablo-Efikoj",
        "Description[es]": "Preferencias del compositor para los efectos del escritorio",
        "Description[et]": "Komposiitori seadistused töölauaefektide tarbeks",
        "Description[eu]": "Konposatzailearen ezarpenak mahaigaineko efektuetarako",
        "Description[fi]": "Koostamisasetukset työpöytätehosteille",
        "Description[fr]": "Configuration du compositeur pour les effets de bureau",
        "Description[he]": "הגדרות מנהל חלונאי לאפקטים של שולחן העבודה",
        "Description[ia]": "Preferentias de compositor pro le effectos de scriptorio",
        "Description[id]": "Pengaturan Kompositor untuk Efek Jendela",
        "Description[it]": "Impostazioni del compositore per gli effetti del desktop",
        "Description[ja]": "デスクトップエフェクトのためのコンポジタの設定",
        "Description[ka]": "კომპოზიტორის მორგება სამუშაო მაგიდის ეფექტებისთვის",
        "Description[ko]": "데스크톱 효과에 사용되는 컴포지터 설정",
        "Description[nl]": "Instellingen van compositor configureren voor bureaubladeffecten",
        "Description[nn]": "Samansetjarinnstillingar for skrivebordseffektar",
        "Description[pl]": "Ustawienia kompozytora dla efektów pulpitu",
        "Description[pt]": "Configuração dos Efeitos de Ecrã do Compositor",
        "Description[pt_BR]": "Definições do Compositor para os efeitos da área de trabalho",
        "Description[ro]": "Configurări compozitor pentru efecte de birou",
        "Description[ru]": "Настройка модуля обеспечения эффектов рабочего стола",
        "Description[sk]": "Nastavenia kompozítora pre efekty plochy",
        "Description[sl]": "Nastavitev upravljalnika skladnje za učinke namizja",
        "Description[sv]": "Sammansättningsinställningar för skrivbordseffekter",
        "Description[ta]": "பணிமேடை அசைவூட்டங்களுக்கான அமைப்புகள்",
        "Description[tr]": "Masaüstü Efektleri için Bileşikleştirici Ayarları",
        "Description[uk]": "Параметри засобу композиції для ефектів стільниці",
        "Description[vi]": "Các thiết lập trình kết hợp cho các hiệu ứng bàn làm việc",
        "Description[x-test]": "xxCompositor Settings for Desktop Effectsxx",
        "Description[zh_CN]": "桌面特效显示合成器设置",
        "Description[zh_TW]": "合成器的桌面效果設定",
        "Icon": "preferences-desktop",
        "Name": "Compositor",
        "Name[ar]": "المركب",
        "Name[az]": "Düzücü vasitəsi",
        "Name[be]": "Сродак кампазітынгу",
        "Name[bg]": "Композитор на визуални ефекти",
        "Name[ca@valencia]": "Compositor",
        "Name[ca]": "Compositor",
        "Name[cs]": "Kompozitor",
        "Name[de]": "Compositor",
        "Name[en_GB]": "Compositor",
        "Name[eo]": "Kompostisto",
        "Name[es]": "Compositor",
        "Name[et]": "Komposiitor",
        "Name[eu]": "Konposatzailea",
        "Name[fi]": "Koostin",
        "Name[fr]": "Compositeur",
        "Name[he]": "מנהל חלונאי",
        "Name[ia]": "Compositor",
        "Name[id]": "Kompositor",
        "Name[it]": "Compositore",
        "Name[ja]": "コンポジタ",
        "Name[ka]": "კომპოზიტორი",
        "Name[ko]": "컴포지터",
        "Name[nl]": "Compositor",
        "Name[nn]": "Samansetjar",
        "Name[pl]": "Kompozytor",
        "Name[pt]": "Compositor",
        "Name[pt_BR]": "Compositor",
        "Name[ro]": "Compozitor",
        "Name[ru]": "Обеспечение эффектов",
        "Name[sk]": "Kompozítor",
        "Name[sl]": "Upravljalnik skladnje",
        "Name[sv]": "Sammansättning",
        "Name[ta]": "சாளரநிரல்",
        "Name[tr]": "Bileşikleştirici",
        "Name[uk]": "Засіб композиції",
        "Name[vi]": "Trình kết hợp",
        "Name[x-test]": "xxCompositorxx",
        "Name[zh_CN]": "显示特效合成器",
        "Name[zh_TW]": "合成器"
    },
    "X-DocPath": "https://userbase.kde.org/Desktop_Effects_Performance#Advanced_Desktop_Effects_Settings",
    "X-KDE-Keywords": "kwin,window,manager,compositing,compositor,effect,3D effects,2D effects,video settings,graphical effects,desktop effects,graphics,latency,vsync,tearing,window thumbnails",
    "X-KDE-Keywords[ar]": "كوين,نافذة,نوافذ,تأثير,تأثيرات,مصغرات,مصغرة,رسوميات,معالج,تكبير,تصغير,فيديو,تركيب,خلفية",
    "X-KDE-Keywords[az]": "kwin,window,manager,compositing,compositor,effect,3D effects,2D effects,OpenGL,XRender,video settings,graphical effects,desktop effects,graphics,latency,vsync,tearing,window thumbnails,scale method,scaling method,backend,pəncərə,idarəedici,menecer,birləşdirmə,effekt,3D effektlər,2D effektlər,video ayarları,arafik effektlər,qrafiklər,gecikmə,şaquli eyniləşdirmə,pəncərə eskizləri,miqyas üsulu,miqyaslama üsulu,server tərəf",
    "X-KDE-Keywords[ca@valencia]": "kwin,finestra,gestor,composició,compositor,efecte,efectes 3D,efectes 2D,OpenGL,XRender,configuració de vídeo,efectes gràfics,efectes de l'escriptori,gràfics.latència,vsync,tearing,esquinçament,miniatures de finestres,mètode d'esca,mètode d'escalat,dorsal",
    "X-KDE-Keywords[ca]": "kwin,finestra,gestor,composició,compositor,efecte,efectes 3D,efectes 2D,OpenGL,XRender,arranjament de vídeo,efectes gràfics,efectes de l'escriptori,gràfics.latència,vsync,tearing,esquinçament,miniatures de finestres,mètode d'esca,mètode d'escalat,dorsal",
    "X-KDE-Keywords[de]": "Fenstermanager,Fensterverwaltung,Effekt,Fenster,3D-Effekte,2D-Effekte,Video-Einstellungen,Grafikeffekte,Arbeitsflächeneffekte,Skalierung",
    "X-KDE-Keywords[en_GB]": "kwin,window,manager,compositing,compositor,effect,3D effects,2D effects,OpenGL,XRender,video settings,graphical effects,desktop effects,graphics,latency,vsync,tearing,window thumbnails,scale method,scaling method,backend",
    "X-KDE-Keywords[es]": "kwin,ventana,gestor,composición,compositor,efecto,efectos 3D,efectos 2D,OpenGL,XRender,preferencias de vídeo,efectos gráficos,efectos del escritorio,gráficos,latencia,vsync,tearing,miniaturas de ventanas,método de escalado,motor",
    "X-KDE-Keywords[fi]": "kwin,ikkunaohjelma,ikkunointiohjelma,ikkunahallinta,koostaminen,koostaja,3D-tehosteet,3U-tehosteet,2D-tehosteet,2U-tehosteet,OpenGL,XRender,näyttöasetukset,videoasetukset,grafiikka-asetukset,työpöytätehosteet,grafiikka,viive,latenssi,vsync,pirstominen,ikkunan pienoiskuvat,skaalaustapa,taustajärjestelmä",
    "X-KDE-Keywords[fr]": "kwin, fenêtre, gestionnaire, composition, compositeur, effet, effets 3D, effets 2D, OpenGL, XRender, paramètres vidéo, effets graphiques, effets de bureau, graphique, latence, vsync, déchirement, vignettes de fenêtres, méthode de dimensionnent, méthode de mise à l'échelle, moteur",
    "X-KDE-Keywords[hu]": "kwin,ablak,kezelő,összeállítás,hatás,3D hatások,2D hatások,OpenGL,XRender,videobeállítások,grafikus hatások,asztali hatások,grafika,késleltetés,vsync,szaggatás,ablak bélyegképek,méretezési mód,nagyítási mód,modul",
    "X-KDE-Keywords[ia]": "kwin,fenestra,gerente,componer,compositor,effecto,effectos 3D, effectos 2D,OpenGL,XRender,preferentias de video, effectos graphic, effectos de scriptorio,graphiches,latentia,vsync,lacerar, miniaturas de fenestra, methodo de scala, metodo de scalar, retro administration",
    "X-KDE-Keywords[id]": "kwin,window,jendela,manajer,pengelola,kompositor,efek,efek 3D, efek 2D,OpenGL,XRender,pengaturan video,efek grafikal,efek desktop,latensi,vsync,tearing,sobek,perobekan,thumbnail window,metode skala,backend",
    "X-KDE-Keywords[it]": "kwin,finestra,gestore,composizione,effetto,effetti 3D,effetti 2D,OpenGL,XRender,impostazioni video,effetti grafici,effetti del desktop,velocità delle animazioni,vsync,disturbo,miniature delle finestre,metodo di ridimensionamento,motore",
    "X-KDE-Keywords[ko]": "kwin,window,manager,compositing,compositor,effect,3D effects,2D effects,OpenGL,XRender,video settings,graphical effects,desktop effects,graphics,latency,vsync,tearing,window thumbnails,scale method,scaling method,backend,창,관리자,컴포지터,효과,3D 효과,2D 효과,비디오 설정,그래픽 효과,데스크톱 효과,그래픽,티어링,창 미리 보기,크기 조정 방법,백엔드",
    "X-KDE-Keywords[nl]": "kwin,window,manager,beheerder,compositing,compositor,effecten,3D-effecten,2D-effecten,OpenGL,XRender,video-instellingen,grafische effecten,bureaubladeffecten,illustraties,vertraging,vsync,scheeftrekken,vensterminiaturen,schaalmethode,schaalmethode,backend",
    "X-KDE-Keywords[nn]": "kwin,vindauge,vindaugshandsamar,samansetjing,samansetjar,effekt,3D-effektar,2D-effektar,OpenGL,XRender,videoinnstillingar,grafiske effektar,skrivebordseffektar,grafikk,latenstid,vsync,tearing,rifter,miniatyrbilete,skaleringsmetode,bakgrunnsmotor",
    "X-KDE-Keywords[pl]": "kwin,okno,menadżer,menedżer,zarządca,komponowanie,kompozytor,efekt,efekt 3D,efekt 2D,OpenGL,XRender,ustawienia wideo,efekty graficzne,efekty pulpitu,grafika,opóźnienie,vsync,rozrywanie,miniatury okien,sposób skalowania,metoda skalowania,silnik",
    "X-KDE-Keywords[pt]": "kwin,janela,gestor,composição,efeito,efeitos 3D,efeitos 2D,OpenGL,XRender,configuração do vídeo,efeitos gráficos,efeitos do ecrã,gráficos,latência,sincronização vertical,varrimento,miniaturas das janelas,método de escala,infra-estrutura",
    "X-KDE-Keywords[pt_BR]": "kwin,janela,gerenciador,composição,compositor,efeito,efeitos 3D,efeitos 2D,OpenGL,XRender,configurações de vídeo,efeitos gráficos,efeitos da área de trabalho,gráficos, latência,vsync,tearing,miniaturas de janelas,método de escala,escanolamento,infraestrutura",
    "X-KDE-Keywords[ru]": "kwin,window,manager,compositing,compositor,effect,3D effects,2D effects,OpenGL,XRender,video settings,graphical effects,desktop effects,graphics,latency,vsync,tearing,window thumbnails,scale method,scaling method,backend,композитинг,композитный диспетчер окон,эффекты рабочего стола,графические эффекты,рендеринг,параметры видео,настройка видео,графика,задержка,миниатюры окон,способ масштабирования",
    "X-KDE-Keywords[sk]": "kwin,okno,správca,kompozícia,kompozítor,efekt,3D efekty,2D efekty, OpenGL,XRender,nastavenia videa,grafické efekty,efekty na ploche,grafika, odozva,vsync,trhanie,miniatúry okien,metóda mierky,metóda zmeny mierky,backend",
    "X-KDE-Keywords[sl]": "kwin,okno,upravljalnik,skladnja,učinek,3D učinki,2D učinki,OpenGL,XRender,nastavitve videa,video,grafični učinki,namizni učinki,zakasnitev grafike, vsync,trganje,predogledne sličice oken,metode povečevanja,metode prilagajanja velikosti,ozadje",
    "X-KDE-Keywords[sv]": "kwin,fönster,hantering,sammansättning,effekt,3D effekter,2D effekter,OpenGL,XRender,videoinställningar,grafiska effekter,skrivbordseffekter,grafik,latens,vsynk,rivning,fönsterminiatyrbilder,skalningsmetod,gränssnitt",
    "X-KDE-Keywords[tr]": "kwin,pencere,yönetici,bileşikleştirme,bileşikleştirici,efekt,3B efekktler,2B efektler,OpenGL,XRender,video ayarları,grafiksel efektler,masaüstü efektleri,grafikler,gecikme,vsync,çizdirme,pencere küçük resimleri,ölçeklendirme yöntemi,ölçek yöntemi,arka uç",
    "X-KDE-Keywords[uk]": "kwin,window,manager,compositing,effect,3D effects,2D effects,OpenGL,XRender,video settings,graphical effects,desktop effects,graphics,latency,vsync,tearing,window thumbnails,scale method,scaling method,backend,вікно,керування,композитне,композиція,ефект,просторовий,ефекти,плоскі,параметри відео,графічні ефекти,ефекти стільниці,графіка,затримка,латентність,вертикальна синхронізація,розрив,мініатюри вікон,метод масштабування,спосіб масштабування,модуль,сервер",
    "X-KDE-Keywords[vi]": "kwin,window,manager,compositing,compositor,effect,3D effects,2D effects,OpenGL,XRender,video settings,graphical effects,desktop effects,graphics,latency,vsync,tearing,window thumbnails,scale method,scaling method,backend,cửa sổ,trình quản lí,kết hợp,trình kết hợp,hiệu ứng,hiệu ứng 3D,hiệu ứng 2D,thiết lập phim,hiệu ứng đồ hoạ,hiệu ứng bàn làm việc,đồ hoạ,độ trễ,rách hình,hình nhỏ của cửa sổ,phương pháp đổi cỡ,hậu phương",
    "X-KDE-Keywords[x-test]": "xxkwinxx,xxwindowxx,xxmanagerxx,xxcompositingxx,xxcompositorxx,xxeffectxx,xx3D effectsxx,xx2D effectsxx,xxOpenGLxx,xxXRenderxx,xxvideo settingsxx,xxgraphical effectsxx,xxdesktop effectsxx,xxgraphicsxx,xxlatencyxx,xxvsyncxx,xxtearingxx,xxwindow thumbnailsxx,xxscale methodxx,xxscaling methodxx,xxbackendxx",
    "X-KDE-Keywords[zh_CN]": "kwin,window,manager,compositing,compositor,effect,3D effects,2D effects,OpenGL,XRender,video settings,graphical effects,desktop effects,graphics,latency,vsync,tearing,window thumbnails,scale method,scaling method,backend,窗口,管理器,显示特效混合器,混合器,构图,混成,效果,特效,视效,动效,3D 特效,2D 特效,视频设置,图形效果,图形特效,图形延迟,延迟,垂直同步,撕裂,窗口缩略图,缩放方式,后端,后端程序",
    "X-KDE-System-Settings-Parent-Category": "display",
    "X-KDE-Weight": 60
}
