{
    "KPlugin": {
        "Category": "Focus",
        "Description": "Slide back windows when another window is raised",
        "Description[ar]": "مرر النوافذ للخلف عند صعود نافذة أخرى",
        "Description[az]": "Yeni pəncərə qaldırıldığında digər pəncərə arxaya sürüşür",
        "Description[be]": "Пры ўзніманні іншага акна акно ссоўваецца назад",
        "Description[bg]": "Плъзгане на прозорците назад, когато се повдигне друг прозорец",
        "Description[ca@valencia]": "Llisca arrere les finestres quan s'eleva una altra finestra",
        "Description[ca]": "Llisca enrere les finestres quan s'eleva una altra finestra",
        "Description[cs]": "Zasunout okna, pokud ztratí zaměření",
        "Description[de]": "Fenster nach hinten gleiten, wenn ein anderes Fenster aktiviert wird",
        "Description[en_GB]": "Slide back windows when another window is raised",
        "Description[eo]": "Glitigi malantaŭen fenestrojn kiam alia fenestro estas levita",
        "Description[es]": "Deslizar hacia atrás las ventanas cuando otra ventana pasa al primer plano",
        "Description[et]": "Akende tagasiliuglemine uue akna esiletoomisel",
        "Description[eu]": "Irristatu atzerantz beste leiho bat altxatzen denean",
        "Description[fi]": "Liu’uttaa ikkunoita taaksepäin toisen ikkunan noustessa",
        "Description[fr]": "Faire glisser les fenêtres vers l'arrière lors de l'apparition d'une autre fenêtre",
        "Description[he]": "החלקת חלוניות אחורה כשחלון אחר מוגבה",
        "Description[hu]": "Ablakok visszacsúsztatása másik ablak előtérbe hozásakor",
        "Description[ia]": "Glissa retro fenestras quando un altere fenestra es elevate",
        "Description[id]": "Menggeser mundur jendela ketika jendela yang lain dinaikkan",
        "Description[it]": "Fai scivolare indietro le altre finestre quando un'altra finestra viene portata in primo piano",
        "Description[ja]": "ウィンドウが前面に移動されたとき他のウィンドウを背面へスライドします",
        "Description[ka]": "სხვა ფანჯრების აწევისას ფანჯრების უკან გასრიალებ",
        "Description[ko]": "다른 창을 올렸을 때 창 뒤로 밀기",
        "Description[nl]": "Schuif vensters terug wanneer een ander venster omhoog komt",
        "Description[nn]": "Skli tilbake vindauge som mistar fokus",
        "Description[pl]": "Przesuwa inne okna do tyłu przy przywoływaniu danego okna",
        "Description[pt]": "Deslizar as janelas para trás quando é elevada outra janela",
        "Description[pt_BR]": "Desliza as janelas para trás quando outra for elevada",
        "Description[ro]": "Alunecă ferestrele înapoi când altă fereastră e ridicată",
        "Description[ru]": "При подъёме окна другие окна соскальзывают назад",
        "Description[sk]": "Zasunie okná pri zdvihnutí iného okna",
        "Description[sl]": "Podrsa okna nazaj, ko se dvigne drugo okno",
        "Description[sv]": "Låt fönster skjutas tillbaka när ett annat fönster höjs",
        "Description[tr]": "Başka bir pencere yükseltildiğinde pencereleri geri kaydır",
        "Description[uk]": "Ковзання вікон на задній план під час підняття інших вікон",
        "Description[vi]": "Trượt lùi cửa sổ khi một cửa sổ khác được nâng lên",
        "Description[x-test]": "xxSlide back windows when another window is raisedxx",
        "Description[zh_CN]": "激活一个窗口时呈现其他窗口的后滑动效",
        "Description[zh_TW]": "在另一個視窗被移到上層時把視窗滑到後面去",
        "EnabledByDefault": false,
        "License": "GPL",
        "Name": "Slide Back",
        "Name[ar]": "التمرير الخلفي",
        "Name[az]": "Arxasına sürüşdürmək",
        "Name[be]": "Ссоўване назад",
        "Name[bg]": "Плъзгане назад",
        "Name[ca@valencia]": "Llisca cap arrere",
        "Name[ca]": "Llisca cap enrere",
        "Name[cs]": "Zasunout",
        "Name[de]": "Nach hinten gleiten",
        "Name[en_GB]": "Slide Back",
        "Name[eo]": "Gliti Reen",
        "Name[es]": "Deslizar hacia atrás",
        "Name[et]": "Tagasiliuglemine",
        "Name[eu]": "Irristatu atzerantz",
        "Name[fi]": "Liuku taaksepäin",
        "Name[fr]": "Glisser vers l'arrière",
        "Name[he]": "החלקה אחורה",
        "Name[hu]": "Visszacsúszó ablakok",
        "Name[ia]": "Glissa de retro",
        "Name[id]": "Slide Back",
        "Name[it]": "Scivola indietro",
        "Name[ja]": "後ろにスライド",
        "Name[ka]": "უკან გადახვევა",
        "Name[ko]": "뒤로 미끄러짐",
        "Name[nl]": "Naar achter bewegen",
        "Name[nn]": "Skli tilbake",
        "Name[pl]": "Przesuwanie w tył",
        "Name[pt]": "Deslizar para Trás",
        "Name[pt_BR]": "Deslizar para trás",
        "Name[ro]": "Alunecă înapoi",
        "Name[ru]": "Соскальзывание",
        "Name[sk]": "Zasunúť",
        "Name[sl]": "Drsaj nazaj",
        "Name[sv]": "Skjut tillbaka",
        "Name[tr]": "Geri Kaydır",
        "Name[uk]": "Зниження",
        "Name[vi]": "Trượt lùi",
        "Name[x-test]": "xxSlide Backxx",
        "Name[zh_CN]": "窗口后滑动效",
        "Name[zh_TW]": "滑動到後面"
    }
}
